id;date;quantite
1;2021-03-02;10697
2;2021-03-02;35019
3;2021-03-01;85821
4;2021-03-02;78509
5;2021-03-01;32691
6;2021-03-02;29587
7;2021-03-02;76718
8;2021-03-01;92913
9;2021-03-01;74736
10;2021-03-01;15676
