id;quantite;date
1;40873;2021-03-02
2;67982;2021-03-01
3;86482;2021-03-02
4;89868;2021-03-02
5;72964;2021-03-02
6;59182;2021-03-02
7;98154;2021-03-01
8;46066;2021-03-02
9;85087;2021-03-01
10;52455;2021-03-01
