{
  "name": "Sortie",
  "fields": [
    {
      "fieldName": "date",
      "fieldType": "LocalDate"
    },
    {
      "fieldName": "quantite",
      "fieldType": "Integer"
    }
  ],
  "relationships": [
    {
      "relationshipType": "many-to-one",
      "otherEntityName": "produit",
      "otherEntityRelationshipName": "sortie",
      "relationshipName": "produit",
      "otherEntityField": "libelle"
    },
    {
      "relationshipType": "many-to-one",
      "otherEntityName": "facture",
      "otherEntityRelationshipName": "sortie",
      "relationshipName": "facture",
      "otherEntityField": "numero"
    }
  ],
  "changelogDate": "20210302141447",
  "entityTableName": "sortie",
  "dto": "no",
  "pagination": "pagination",
  "service": "serviceImpl",
  "jpaMetamodelFiltering": false,
  "fluentMethods": true,
  "readOnly": false,
  "embedded": false,
  "clientRootFolder": "",
  "applications": "*"
}
